…
TRUE ~ IndicatorName),

year = as.numeric(year)) %>% 

filter(IndicatorName %in% c("Gross capital formation","Household expenditure", "Government expenditure", "Exports", "Imports", "GDP (given)"))

# Let us compare GDP components for these 3 countries
country_list <- c("United States","India", "Germany")
# we filter only for the countries in the list.
tidy_GDP_USINDE <- tidy_GDP_data %>% 
  filter(Country %in% country_list)

tidy_GDP_USINDE

## # A tibble: 864 x 5
##    CountryID Country IndicatorName          year gdp_contribution
##        <dbl> <chr>   <chr>                 <dbl>            <dbl>
##  1       276 Germany Household expenditure  1970             872.
##  2       276 Germany Household expenditure  1971             919.
##  3       276 Germany Household expenditure  1972             969.
##  4       276 Germany Household expenditure  1973             997.
##  5       276 Germany Household expenditure  1974             995.
##  6       276 Germany Household expenditure  1975            1032.
##  7       276 Germany Household expenditure  1976            1076.
##  8       276 Germany Household expenditure  1977            1122.
##  9       276 Germany Household expenditure  1978            1162.
## 10       276 Germany Household expenditure  1979            1200.
## # ... with 854 more rows
